Analysing stratified counts • happyCompare
…
## [1] "summary"  "extended" "pr_curve"

Extracting data from happy_compare objects

Once we have a happy_compare object we can rely on the extract_metrics function to access our metrics of interest. Since hap.py saves stratified counts under *extended.csv files, we can use the following:

stratified_counts <- extract_metrics(happy_compare, table = "extended") %>% 
  filter(Subtype == "*", Filter == "PASS", Subset.Level == 0, !grepl(pattern = "TS*", Subset)) 

This will conveniently merge hap.py results with samplesheet metadata, making downstream analysis easier:

stratified_counts

## # A tibble: 140 x 69
##    Group.Id Sample.Id   Replicate.Id
##       <chr>     <chr>          <chr>
##  1 PCR-Free   NA12878 NA12878-I30_S1
##  2 PCR-Free   NA12878 NA12878-I30_S1
##  3 PCR-Free   NA12878 NA12878-I30_S1
##  4 PCR-Free   NA12878 NA12878-I30_S1
##  5 PCR-Free   NA12878 NA12878-I30_S1
##  6 PCR-Free   NA12878 NA12878-I30_S1
##  7 PCR-Free   NA12878 NA12878-I30_S1
##  8 PCR-Free   NA12878 NA12878-I30_S1
##  9 PCR-Free   NA12878 NA12878-I30_S1
## 10 PCR-Free   NA12878 NA12878-I30_S1
## # ... with 130 more rows, and 66 more variables: happy_prefix <chr>,
## #   Type <chr>, Subtype <chr>, Subset <chr>, Filter <chr>, Genotype <chr>,
## #   QQ.Field <chr>, QQ <chr>, METRIC.Recall <dbl>, METRIC.Precision <dbl>,
## #   METRIC.Frac_NA <dbl>, METRIC.F1_Score <dbl>, FP.gt <int>, FP.al <int>,
## #   Subset.Size <dbl>, Subset.IS_CONF.Size <dbl>, Subset.Level <dbl>,
## #   TRUTH.TOTAL <int>, TRUTH.TOTAL.ti <dbl>, TRUTH.TOTAL.tv <dbl>,
## #   TRUTH.TOTAL.het <dbl>, TRUTH.TOTAL.homalt <dbl>,
## #   TRUTH.TOTAL.TiTv_ratio <dbl>, TRUTH.TOTAL.het_hom_ratio <dbl>,
## #   TRUTH.TP <int>, TRUTH.TP.ti <dbl>, TRUTH.TP.tv <dbl>,
…
